ë¬¼ë¡ ì´ì£ ! ì•„ë˜ëŠ” ì—°ë¦¬ì§€ API ë¬¸ì„œë¥¼ ê¸°ë°˜ìœ¼ë¡œ ì •ë¦¬í•œ **Markdown í˜•ì‹ì˜ API Endpoint ë¬¸ì„œ**ì…ë‹ˆë‹¤. ê° ì„¹ì…˜ì€ ê¸°ëŠ¥ë³„ë¡œ ë‚˜ëˆ„ì—ˆê³ , ìš”ì²­ ë°©ì‹ê³¼ ê²½ë¡œë¥¼ ëª…í™•íˆ í‘œê¸°í–ˆìŠµë‹ˆë‹¤.

---

# ğŸŒ¿ Yeonriji API Documentation

## external

POST  /external-api/complete-plant-identification   # Plant.IDë¡œ ì‹ë¬¼ì„ ì‹ë³„í•˜ê³ , Geminië¡œ í•œêµ­ì–´ ë²ˆì—­ ë° ê´€ë¦¬ ì •ë³´ë¥¼ ê°€ì ¸ì˜µë‹ˆë‹¤.
req ex:
{"imageUrl":"https://ku-hackathon.s3.ap-southeast-2.amazonaws.com/plant/451f9dff-8b51-4a9e-91c1-81fb3fd46f73-ad9faa6729711b023d6b31b154e01d0aa1e09.jpeg"}

res ex:
{
  "name": "Allium lusitanicum",
  "koreanName": "ë‘ë©”ë¶€ì¶”\n",
  "probability": 0.9389,
  "careInfo": {
    "wateringCycle": "7",
    "sunlightNeeds": "ê°„ì ‘ê´‘ì„ ",
    "careInstructions": "ì¼ë°˜ì ì¸ ì‹ë¬¼ ê´€ë¦¬ ë°©ë²•ì„ ë”°ë¼ì£¼ì„¸ìš”."
  }
}

## ğŸ” Authentication
```http
POST /auth/signup         # íšŒì›ê°€ì…
POST /auth/login          # ë¡œê·¸ì¸
req body:
{
  "email": "user@example.com",
  "password": "password123"
} 
response example:
{
  "access_token": "eyJhbGciOiJIUzI1NiIsInR5cCI6IkpXVCJ9.eyJlbWFpbCI6InVzZXJAZXhhbXBsZS5jb20iLCJzdWIiOjEsImlhdCI6MTc1NjQwNTU3MywiZXhwIjoxNzU2NDkxOTczfQ.0jgOpk1wKKwJ1v5BrVE1DamTXzjxmxHnj6lgpUb9rS8",
  "user": {
    "id": 1,
    "name": "ê¹€ë¯¼ì¤€",
    "email": "user@example.com"
  }
}
```

## ğŸ  Home
```http
GET /home/my-plants       # ë‚´ ì‹ë¬¼ ë¦¬ìŠ¤íŠ¸ ê°€ì ¸ì˜¤ê¸°
res:
[
  {
    "id": 1,
    "name": "ëª¬ìŠ¤í…Œë¼",
    "variety": "ëª¬ìŠ¤í…Œë¼ ë¸ë¦¬ì‹œì˜¤ì‚¬",
    "img_url": "https://example.com/plant1.jpg",
    "status": "good",
    "daysUntilWatering": 3,
    "lastWatered": "2025-08-25T10:00:00Z",
    "wateringCycle": "7days",
    "sunlightNeeds": "ê°„ì ‘ê´‘ì„ ",
    "recentEmotion": "í–‰ë³µ"
  }
]
GET /home/today-tasks     # ì˜¤ëŠ˜ í•  ì¼ ê°€ì ¸ì˜¤ê¸°
GET /home/weekly-diaries  # ì£¼ê°„ ì¼ê¸° ì‘ì„± í˜„í™©
GET /home/diaries/{date}  # íŠ¹ì • ë‚ ì§œ ì¼ê¸° ë‚´ìš© ê°€ì ¸ì˜¤ê¸°
GET /home/friend-feeds    # ì¹œêµ¬ ë°˜ì‘ ê°€ì ¸ì˜¤ê¸°
```

## ğŸŒ± Plants
```http
POST /plants/image        # ì‹ë¬¼ ì´ë¯¸ì§€ ì—…ë¡œë“œ
req body: formdata, key: file
res ex:
{
  "imageUrl": "https://s3.amazonaws.com/bucket/plants/uuid-filename.jpg"
}
POST /plants              # ì‹ë¬¼ ë“±ë¡
req body:
{
  "name": "ëª¬ìŠ¤í…Œë¼",
  "variety": "ëª¬ìŠ¤í…Œë¼ ë¸ë¦¬ì‹œì˜¤ì‚¬",
  "img_url": "https://example.com/plant1.jpg",
  "cycle_type": "WEEKLY",
  "cycle_value": "7",
  "cycle_unit": "ì¼",
  "sunlight_needs": "ê°„ì ‘ê´‘ì„ ",
  "purchase_date": "2025-08-20T00:00:00Z",
  "purchase_location": "í™”ì›",
  "memo": "ì²« ë²ˆì§¸ ì‹ë¬¼"
}
res ex:
{
  "id": 1,
  "name": "ëª¬ìŠ¤í…Œë¼",
  "variety": "ëª¬ìŠ¤í…Œë¼ ë¸ë¦¬ì‹œì˜¤ì‚¬",
  "img_url": "https://example.com/plant1.jpg",
  "cycle_type": "WEEKLY",
  "cycle_value": "7",
  "cycle_unit": "ì¼",
  "sunlight_needs": "ê°„ì ‘ê´‘ì„ ",
  "purchase_date": "2025-08-20T00:00:00Z",
  "purchase_location": "í™”ì›",
  "memo": "ì²« ë²ˆì§¸ ì‹ë¬¼",
  "author": {},
  "createdAt": "2025-08-28T10:00:00Z",
  "updatedAt": "2025-08-28T10:00:00Z"
}
GET /plants               # ë‚´ ì‹ë¬¼ ëª©ë¡ ì¡°íšŒ
GET /plants/{id}          # íŠ¹ì • ì‹ë¬¼ ì¡°íšŒ
res ex:
{
  "id": 2,
  "name": "ì„¸ë² ",
  "variety": "ì‚°ì„¸ë² ë¦¬ì•„",
  "img_url": "https://i.ytimg.com/vi/LOPw_hgNtP4/mqdefault.jpg",
  "cycle_type": "BIWEEKLY",
  "cycle_value": "14",
  "cycle_unit": "days",
  "sunlight_needs": "ì§ì‚¬ê´‘ì„ ",
  "purchase_date": "2024-02-20T00:00:00.000Z",
  "purchase_location": "ê½ƒì§‘",
  "memo": "ê³µê¸°ì •í™” ì‹ë¬¼",
  "author": {
    "id": 1,
    "name": "ê¹€ë¯¼ì¤€"
  },
  "createdAt": "2025-08-28T14:10:06.250Z",
  "updatedAt": "2025-08-28T16:03:57.854Z"
}
PATCH /plants/{id}        # ì‹ë¬¼ ì •ë³´ ìˆ˜ì •
DELETE /plants/{id}       # ì‹ë¬¼ ì‚­ì œ

res ex:
Code	Description	Links
200	
ì‹ë¬¼ ì‚­ì œ ì„±ê³µ

No links
403	
ì‚­ì œ ê¶Œí•œ ì—†ìŒ

No links
404	
ì‹ë¬¼ì„ ì°¾ì„ ìˆ˜ ì—†ìŒ

```

## ğŸ§‘â€ğŸ¤â€ğŸ§‘ Community
```http
POST /community/image                     # ì»¤ë®¤ë‹ˆí‹° ì´ë¯¸ì§€ ì—…ë¡œë“œ

GET /community                            # ê²Œì‹œê¸€ ëª©ë¡ ì¡°íšŒ
GET /community/{id}                       # íŠ¹ì • ê²Œì‹œê¸€ ì¡°íšŒ
POST /community/posts                     # ê²Œì‹œê¸€ ì‘ì„±
PATCH /community/posts/{id}              # ê²Œì‹œê¸€ ìˆ˜ì •
DELETE /community/posts/{id}             # ê²Œì‹œê¸€ ì‚­ì œ
POST /community/posts/{id}/like          # ê²Œì‹œê¸€ ì¢‹ì•„ìš”/ì·¨ì†Œ
í•„ìš” ì¸ì: path variable id only
response:
{
  "isLiked": true,
  "likesCount": 15
}
GET /community/posts/{id}/comments       # ê²Œì‹œê¸€ ëŒ“ê¸€ ëª©ë¡ ì¡°íšŒ
query params:
id *
number
(path)
ê²Œì‹œê¸€ ID

page
number
(query)
í˜ì´ì§€ ë²ˆí˜¸

limit
number
(query)
í˜ì´ì§€ë‹¹ í•­ëª© ìˆ˜

response example:
{
  "comments": [
    {
      "id": 1,
      "content": "ëª¬ìŠ¤í…Œë¼ ì •ë§ ì˜ˆì˜ê²Œ í‚¤ìš°ì‹œë„¤ìš”!",
      "author": {
        "id": 1,
        "name": "ê¹€ë¯¼ì¤€"
      },
      "createdAt": "2025-08-28T14:10:06.320Z",
      "updatedAt": "2025-08-28T14:10:06.320Z",
      "parent_id": null,
      "replies": []
    },
    {
      "id": 2,
      "content": "ì €ë„ ëª¬ìŠ¤í…Œë¼ í‚¤ìš°ê³  ì‹¶ì–´ì¡Œì–´ìš”",
      "author": {
        "id": 1,
        "name": "ê¹€ë¯¼ì¤€"
      },
      "createdAt": "2025-08-28T14:10:06.320Z",
      "updatedAt": "2025-08-28T14:10:06.320Z",
      "parent_id": null,
      "replies": []
    }
  ],
  "total": 2,
  "page": 1,
  "limit": 10,
  "totalPages": 1
}

POST /community/posts/{id}/comments      # ëŒ“ê¸€ ì‘ì„±
request body:
{
  "content": "ì •ë§ ìœ ìš©í•œ ì •ë³´ë„¤ìš”! ê°ì‚¬í•©ë‹ˆë‹¤.",
  "parent_id": 1
}
response example:
{
  "id": 1,
  "content": "ì •ë§ ìœ ìš©í•œ ì •ë³´ë„¤ìš”!",
  "author": {},
  "createdAt": "2025-08-28T10:00:00Z",
  "updatedAt": "2025-08-28T10:00:00Z",
  "parent_id": null,
  "replies": [
    "string"
  ]
}
PATCH /community/comments/{id}           # ëŒ“ê¸€ ìˆ˜ì •
request body:
{
  "content": "ìˆ˜ì •ëœ ëŒ“ê¸€ ë‚´ìš©ì…ë‹ˆë‹¤."
}
response example:
{
  "id": 1,
  "content": "ì •ë§ ìœ ìš©í•œ ì •ë³´ë„¤ìš”!",
  "author": {},
  "createdAt": "2025-08-28T10:00:00Z",
  "updatedAt": "2025-08-28T10:00:00Z",
  "parent_id": null,
  "replies": [
    "string"
  ]
}

DELETE /community/comments/{id}          # ëŒ“ê¸€ ì‚­ì œ
Code	Description	Links
200	
ëŒ“ê¸€ ì‚­ì œ ì„±ê³µ

No links
403	
ì‚­ì œ ê¶Œí•œ ì—†ìŒ

No links
404	
ëŒ“ê¸€ì„ ì°¾ì„ ìˆ˜ ì—†ìŒ


```

## ğŸ“” Diary
```http
GET /diaries/memory                       # ì¤‘ìš”í•œ ì„±ì¥ì¼ê¸° ì¡°íšŒ
req:
res:
[
  {
    "id": 1,
    "title": "ëª¬ì´ì˜ ì²« ìƒˆì",
    "content": "ì˜¤ëŠ˜ ëª¬ì´ì—ê²Œ ìƒˆë¡œìš´ ìì´ ë‚˜ì™”ì–´ìš”! ì •ë§ ì‹ ê¸°í•˜ê³  ê¸°ë»ìš”. ë§¤ì¼ ë¬¼ì„ ì£¼ê³  ê´€ì°°í•œ ë³´ëŒì´ ìˆë„¤ìš”.",
    "water": false,
    "sun": false,
    "emotion": "happy",
    "memory": "ì²« ìƒˆìì˜ ê°ë™",
    "author": {
      "id": 1,
      "name": "ê¹€ì² ìˆ˜"
    },
    "createdAt": "2025-08-28T14:10:06.306Z",
    "updatedAt": "2025-08-28T20:46:39.024Z",
    "images": [
      "https://i.ytimg.com/vi/LOPw_hgNtP4/mqdefault.jpg"
    ],
    "comments_count": 1
  },
  {
    "id": 2,
    "title": "ì„¸ë² ì˜ ì„±ì¥ ê¸°ë¡",
    "content": "ì‚°ì„¸ë² ë¦¬ì•„ ì„¸ë² ê°€ í•œì¸µ ë” ì»¤ì§„ ê²ƒ ê°™ì•„ìš”. ìì´ ë” ë‘êº¼ì›Œì§€ê³  ìƒ‰ê¹”ë„ ì§„í•´ì¡Œì–´ìš”.",
    "water": false,
    "sun": false,
    "emotion": "satisfied",
    "memory": "ê¾¸ì¤€í•œ ì„±ì¥ì˜ ê¸°ì¨",
    "author": {
      "id": 1,
      "name": "ê¹€ì² ìˆ˜"
    },
    "createdAt": "2025-08-27T14:10:06.306Z",
    "updatedAt": "2025-08-28T20:46:39.024Z",
    "images": [
      "https://i.ytimg.com/vi/LOPw_hgNtP4/mqdefault.jpg"
    ],
    "comments_count": 1
  },
  {
    "id": 3,
    "title": "ìŠ¤í‚¨ì´ ë¬¼ì£¼ê¸°",
    "content": "ìŠ¤í‚¨ë‹µì„œìŠ¤ëŠ” ë¬¼ì„ ì¢‹ì•„í•˜ëŠ” ê²ƒ ê°™ì•„ìš”. ë©°ì¹  ì „ì— ë¬¼ì„ ì¤¬ëŠ”ë° ë²Œì¨ í™ì´ ë§ëë„¤ìš”.",
    "water": false,
    "sun": false,
    "emotion": "normal",
    "memory": "ë¬¼ì£¼ê¸° íŒ¨í„´ íŒŒì•…",
    "author": {
      "id": 1,
      "name": "ê¹€ì² ìˆ˜"
    },
    "createdAt": "2025-08-22T14:10:06.306Z",
    "updatedAt": "2025-08-28T20:46:39.024Z",
    "images": [
      "https://i.ytimg.com/vi/LOPw_hgNtP4/mqdefault.jpg"
    ],
    "comments_count": 0
  },
  {
    "id": 4,
    "title": "ì˜¤ëŠ˜ì˜ ì‹ë¬¼ ê´€ì°°",
    "content": "ëª¨ë“  ì‹ë¬¼ë“¤ì´ ê±´ê°•í•´ ë³´ì—¬ìš”. íŠ¹íˆ ëª¬ì´ëŠ” ìì´ ë” ì»¤ì§„ ê²ƒ ê°™ê³ , ì„¸ë² ëŠ” ìƒˆë¡œìš´ ì´‰ì´ ë‚˜ì˜¬ ê²ƒ ê°™ì•„ìš”.",
    "water": false,
    "sun": false,
    "emotion": "happy",
    "memory": "ì „ì²´ì ì¸ ê±´ê°• ì²´í¬",
    "author": {
      "id": 1,
      "name": "ê¹€ì² ìˆ˜"
    },
    "createdAt": "2025-08-20T14:10:06.306Z",
    "updatedAt": "2025-08-28T20:46:39.024Z",
    "images": [
      "https://i.ytimg.com/vi/LOPw_hgNtP4/mqdefault.jpg"
    ],
    "comments_count": 0
  }
]
POST /diary                               # ì¼ê¸° ì‘ì„±
GET /diary/{date}                         # íŠ¹ì • ë‚ ì§œ ì¼ê¸° ì¡°íšŒ
PATCH /diary/{id}                         # ì¼ê¸° ìˆ˜ì •
DELETE /diary/{id}                        # ì¼ê¸° ì‚­ì œ
GET /diaries/{id}/comments                # ì¼ê¸° ëŒ“ê¸€ ëª©ë¡ ì¡°íšŒ
req:
Name	Description
id *
number
(path)
ì¼ê¸° ID

1
page
number
(query)
í˜ì´ì§€ ë²ˆí˜¸

1
limit
number
(query)
í˜ì´ì§€ë‹¹ í•­ëª© ìˆ˜

10

res:
{
  "comments": [
    {
      "id": 1,
      "content": "ì •ë§ ì•„ë¦„ë‹¤ìš´ ì¼ê¸°ë„¤ìš”!",
      "author": {},
      "createdAt": "2025-08-28T10:00:00Z",
      "updatedAt": "2025-08-28T10:00:00Z",
      "parent_id": null,
      "replies": [
        null
      ]
    }
  ],
  "total": 15,
  "page": 1,
  "limit": 10,
  "totalPages": 2
}

POST /diary/{id}/comments                 # ì¼ê¸° ëŒ“ê¸€ ì‘ì„±
req:
{
  "content": "ì •ë§ ì•„ë¦„ë‹¤ìš´ ì¼ê¸°ë„¤ìš”!",
  "parent_id": 1
}
res:
{
  "id": 1,
  "content": "ì •ë§ ì•„ë¦„ë‹¤ìš´ ì¼ê¸°ë„¤ìš”!",
  "author": {},
  "createdAt": "2025-08-28T10:00:00Z",
  "updatedAt": "2025-08-28T10:00:00Z",
  "parent_id": null,
  "replies": [
    null
  ]
}
error - 404 : ì¼ê¸°ë¥¼ ì°¾ì„ ìˆ˜ ì—†ìŒ
PATCH /diary/comments/{id}               # ì¼ê¸° ëŒ“ê¸€ ìˆ˜ì •
req:
{
  "content": "ìˆ˜ì •ëœ ëŒ“ê¸€ ë‚´ìš©ì…ë‹ˆë‹¤."
}
res:
Responses
Code	Description	Links
200	
ëŒ“ê¸€ ìˆ˜ì • ì„±ê³µ

Media type

application/json
Controls Accept header.
Example Value
Schema
{
  "id": 1,
  "content": "ì •ë§ ì•„ë¦„ë‹¤ìš´ ì¼ê¸°ë„¤ìš”!",
  "author": {},
  "createdAt": "2025-08-28T10:00:00Z",
  "updatedAt": "2025-08-28T10:00:00Z",
  "parent_id": null,
  "replies": [
    null
  ]
}
No links
403	
ìˆ˜ì • ê¶Œí•œ ì—†ìŒ

No links
404	
ëŒ“ê¸€ì„ ì°¾ì„ ìˆ˜ ì—†ìŒ

DELETE /diary/comments/{id}              # ì¼ê¸° ëŒ“ê¸€ ì‚­ì œ
req: id - diary id: number
res:
Code	Description	Links
200	
ëŒ“ê¸€ ì‚­ì œ ì„±ê³µ

No links
403	
ì‚­ì œ ê¶Œí•œ ì—†ìŒ

No links
404	
ëŒ“ê¸€ì„ ì°¾ì„ ìˆ˜ ì—†ìŒ


```

## ğŸ§‘â€ğŸ¤â€ğŸ§‘ Friends
```http
GET /friends/search                       # ì‚¬ìš©ì ê²€ìƒ‰
POST /friends/request                     # ì¹œêµ¬ ìš”ì²­ ë³´ë‚´ê¸°
GET /friends/requests                     # ì¹œêµ¬ ìš”ì²­ ëª©ë¡ ì¡°íšŒ
POST /friends/requests/{requestId}/accept # ì¹œêµ¬ ìš”ì²­ ìˆ˜ë½
DELETE /friends/requests/{requestId}/reject # ì¹œêµ¬ ìš”ì²­ ê±°ì ˆ
DELETE /friends/requests/{requestId}/cancel # ì¹œêµ¬ ìš”ì²­ ì·¨ì†Œ
GET /friends                              # ì¹œêµ¬ ëª©ë¡ ì¡°íšŒ
DELETE /friends/{friendId}                # ì¹œêµ¬ ì‚­ì œ
GET /friends/activities                   # ì¹œêµ¬ë“¤ì˜ ìµœê·¼ í™œë™ ì¡°íšŒ
```

## ğŸ‘¤ Users
```http
GET /users/{id}                           # ì‚¬ìš©ì í”„ë¡œí•„ ì¡°íšŒ
GET /users/me/activities                  # ë‚´ í™œë™ ì¡°íšŒ
PATCH /users/me/name                      # ì´ë¦„ ë³€ê²½
req:
{
  "name": "ê¹€ì² ìˆ˜"
}
Code	Description	Links
200	- ì´ë¦„ ë³€ê²½ ì„±ê³µ

Media type

application/json
Controls Accept header.
Example Value
Schema
{
  "id": 1,
  "name": "ê¹€ë¯¼ì¤€",
  "email": "minjun@example.com",
  "profile_img": "https://s3.amazonaws.com/bucket/profile.jpg",
  "createdAt": "2024-01-01T00:00:00.000Z",
  "plantCount": 5,
  "diaryCount": 23,
  "postCount": 12,
  "friendCount": 8
}
No links
400	- ì˜ëª»ëœ ìš”ì²­ ë°ì´í„°
PATCH /users/me/profile-image             # í”„ë¡œí•„ ì‚¬ì§„ ë³€ê²½
req:
{
  "profile_img": "https://s3.amazonaws.com/bucket/new-profile.jpg"
}
res:
{
  "id": 1,
  "name": "ê¹€ë¯¼ì¤€",
  "email": "minjun@example.com",
  "profile_img": "https://s3.amazonaws.com/bucket/profile.jpg",
  "createdAt": "2024-01-01T00:00:00.000Z",
  "plantCount": 5,
  "diaryCount": 23,
  "postCount": 12,
  "friendCount": 8
}
DELETE /users/me/account                  # íšŒì›íƒˆí‡´
```

## ğŸ–¼ï¸ Image
```http
POST /image/upload/single?folder=plants                 # ë‹¨ì¼ ì´ë¯¸ì§€ ì—…ë¡œë“œ
req:
formdata - key: file / body: image file data
res:
{
  "imageUrl": "https://s3.amazonaws.com/bucket/plants/uuid-filename.jpg"
}

POST /image/upload/multiple               # ë‹¤ì¤‘ ì´ë¯¸ì§€ ì—…ë¡œë“œ (ìµœëŒ€ 10ê°œ)
DELETE /image/delete                      # ì´ë¯¸ì§€ ì‚­ì œ
```

---

í•„ìš”í•˜ë‹¤ë©´ ê° APIì˜ ìš”ì²­/ì‘ë‹µ ì˜ˆì‹œë‚˜ íŒŒë¼ë¯¸í„° ì„¤ëª…ë„ ì¶”ê°€í•´ë“œë¦´ ìˆ˜ ìˆì–´ìš”. ì–´ë–¤ ë°©ì‹ìœ¼ë¡œ í™•ì¥í•˜ê³  ì‹¶ìœ¼ì‹ ê°€ìš”?